{
    "/js/app.js": "/js/app.js?id=9bd5ae3e85ce61aca18f",
    "/css/app.css": "/css/app.css?id=375e270f7c61d2fdb0bf",
    "/css/app-rtl.css": "/css/app-rtl.css?id=375e270f7c61d2fdb0bf",
    "/js/sweetalert.min.js": "/js/sweetalert.min.js?id=0068f44b0aa1b83fa767"
}